# Blender v2.69 (sub 0) OBJ File: ''
# www.blender.org
mtllib Sphere.mtl
o Sphere
v -0.195090 0.980785 0.000000
v -0.382683 0.923880 0.000000
v -0.555570 0.831470 0.000000
v -0.707107 0.707107 0.000000
v -0.831470 0.555570 0.000000
v -0.923880 0.382683 0.000000
v -0.980785 0.195090 0.000000
v -1.000000 0.000000 0.000000
v -0.980785 -0.195090 0.000000
v -0.923880 -0.382683 0.000000
v -0.831470 -0.555570 0.000000
v -0.707107 -0.707107 0.000000
v -0.555570 -0.831470 0.000000
v -0.382683 -0.923880 0.000000
v -0.195090 -0.980785 0.000000
v 0.000000 -1.000000 0.000000
v -0.191342 0.980785 -0.038060
v -0.375330 0.923880 -0.074658
v -0.544895 0.831470 -0.108386
v -0.693520 0.707107 -0.137950
v -0.815493 0.555570 -0.162212
v -0.906127 0.382683 -0.180240
v -0.961940 0.195090 -0.191342
v -0.980785 0.000000 -0.195090
v -0.961940 -0.195090 -0.191342
v -0.906127 -0.382683 -0.180240
v -0.815493 -0.555570 -0.162212
v -0.693520 -0.707107 -0.137950
v -0.544895 -0.831470 -0.108386
v -0.375330 -0.923880 -0.074658
v -0.191341 -0.980785 -0.038060
v -0.180240 0.980785 -0.074658
v -0.353553 0.923880 -0.146447
v -0.513280 0.831470 -0.212608
v -0.653281 0.707107 -0.270598
v -0.768178 0.555570 -0.318190
v -0.853553 0.382683 -0.353553
v -0.906127 0.195090 -0.375330
v -0.923879 0.000000 -0.382684
v -0.906127 -0.195090 -0.375330
v -0.853553 -0.382683 -0.353554
v -0.768178 -0.555570 -0.318190
v -0.653281 -0.707107 -0.270598
v -0.513280 -0.831470 -0.212608
v -0.353553 -0.923880 -0.146447
v -0.180240 -0.980785 -0.074658
v -0.162212 0.980785 -0.108387
v -0.318190 0.923880 -0.212608
v -0.461940 0.831470 -0.308658
v -0.587938 0.707107 -0.392848
v -0.691342 0.555570 -0.461940
v -0.768178 0.382683 -0.513280
v -0.815493 0.195090 -0.544895
v -0.831469 0.000000 -0.555570
v -0.815493 -0.195090 -0.544895
v -0.768178 -0.382683 -0.513280
v -0.691342 -0.555570 -0.461940
v -0.587938 -0.707107 -0.392848
v -0.461940 -0.831470 -0.308658
v -0.318189 -0.923880 -0.212608
v -0.162211 -0.980785 -0.108386
v -0.137950 0.980785 -0.137950
v -0.270598 0.923880 -0.270598
v -0.392847 0.831470 -0.392848
v -0.500000 0.707107 -0.500000
v -0.587938 0.555570 -0.587938
v -0.653281 0.382683 -0.653282
v -0.693520 0.195090 -0.693520
v -0.707107 0.000000 -0.707107
v -0.693520 -0.195090 -0.693520
v -0.653281 -0.382683 -0.653282
v -0.587938 -0.555570 -0.587938
v -0.500000 -0.707107 -0.500000
v -0.392847 -0.831470 -0.392848
v -0.270598 -0.923880 -0.270598
v -0.137949 -0.980785 -0.137950
v -0.108386 0.980785 -0.162212
v -0.212607 0.923880 -0.318190
v -0.308658 0.831470 -0.461940
v -0.392847 0.707107 -0.587938
v -0.461940 0.555570 -0.691342
v -0.513280 0.382683 -0.768178
v -0.544895 0.195090 -0.815493
v -0.555570 0.000000 -0.831470
v -0.544895 -0.195090 -0.815493
v -0.513280 -0.382683 -0.768178
v -0.461940 -0.555570 -0.691342
v -0.392847 -0.707107 -0.587938
v -0.308658 -0.831470 -0.461940
v -0.212607 -0.923880 -0.318190
v -0.108386 -0.980785 -0.162212
v -0.074658 0.980785 -0.180240
v -0.146446 0.923880 -0.353554
v -0.212607 0.831470 -0.513280
v -0.270598 0.707107 -0.653282
v -0.318189 0.555570 -0.768178
v -0.353553 0.382683 -0.853554
v -0.375330 0.195090 -0.906128
v -0.382683 0.000000 -0.923880
v -0.375330 -0.195090 -0.906128
v -0.353553 -0.382683 -0.853554
v -0.318189 -0.555570 -0.768178
v -0.270598 -0.707107 -0.653282
v -0.212607 -0.831470 -0.513280
v -0.146446 -0.923880 -0.353554
v -0.074658 -0.980785 -0.180240
v -0.038060 0.980785 -0.191342
v -0.074658 0.923880 -0.375331
v -0.108386 0.831470 -0.544895
v -0.137949 0.707107 -0.693520
v -0.162211 0.555570 -0.815493
v -0.180240 0.382683 -0.906128
v -0.191341 0.195090 -0.961940
v -0.195090 0.000000 -0.980785
v -0.191341 -0.195090 -0.961940
v -0.180240 -0.382683 -0.906128
v -0.162211 -0.555570 -0.815493
v -0.137949 -0.707107 -0.693520
v -0.108386 -0.831470 -0.544895
v -0.074658 -0.923880 -0.375330
v -0.038060 -0.980785 -0.191342
v 0.000000 0.980785 -0.195091
v 0.000000 0.923880 -0.382684
v 0.000000 0.831470 -0.555570
v 0.000000 0.707107 -0.707107
v 0.000000 0.555570 -0.831470
v 0.000000 0.382683 -0.923880
v 0.000000 0.195090 -0.980785
v 0.000000 0.000000 -1.000000
v 0.000000 -0.195090 -0.980785
v 0.000000 -0.382683 -0.923880
v 0.000000 -0.555570 -0.831470
v 0.000000 -0.707107 -0.707107
v 0.000000 -0.831470 -0.555570
v 0.000000 -0.923880 -0.382684
v 0.000000 -0.980785 -0.195090
v 0.038061 0.980785 -0.191342
v 0.074658 0.923880 -0.375331
v 0.108387 0.831470 -0.544895
v 0.137950 0.707107 -0.693520
v 0.162212 0.555570 -0.815493
v 0.180240 0.382683 -0.906128
v 0.191342 0.195090 -0.961940
v 0.195091 0.000000 -0.980785
v 0.191342 -0.195090 -0.961940
v 0.180240 -0.382683 -0.906128
v 0.162212 -0.555570 -0.815493
v 0.137950 -0.707107 -0.693520
v 0.108387 -0.831470 -0.544895
v 0.074658 -0.923880 -0.375330
v 0.038061 -0.980785 -0.191342
v 0.074658 0.980785 -0.180240
v 0.146447 0.923880 -0.353554
v 0.212608 0.831470 -0.513280
v 0.270598 0.707107 -0.653282
v 0.318190 0.555570 -0.768178
v 0.353554 0.382683 -0.853554
v 0.375331 0.195090 -0.906127
v 0.382684 0.000000 -0.923880
v 0.375331 -0.195090 -0.906127
v 0.353554 -0.382683 -0.853554
v 0.318190 -0.555570 -0.768178
v 0.270598 -0.707107 -0.653282
v 0.212608 -0.831470 -0.513280
v 0.146447 -0.923880 -0.353553
v 0.074658 -0.980785 -0.180240
v 0.108387 0.980785 -0.162212
v 0.212608 0.923880 -0.318190
v 0.308659 0.831470 -0.461940
v 0.392848 0.707107 -0.587938
v 0.461940 0.555570 -0.691342
v 0.513280 0.382683 -0.768178
v 0.544895 0.195090 -0.815493
v 0.555571 0.000000 -0.831470
v 0.544895 -0.195090 -0.815493
v 0.513280 -0.382683 -0.768178
v 0.461940 -0.555570 -0.691342
v 0.392848 -0.707107 -0.587938
v 0.308659 -0.831470 -0.461940
v 0.212608 -0.923880 -0.318190
v 0.108387 -0.980785 -0.162212
v 0.137950 0.980785 -0.137950
v 0.270599 0.923880 -0.270598
v 0.392848 0.831470 -0.392848
v 0.500000 0.707107 -0.500000
v 0.587938 0.555570 -0.587938
v 0.653282 0.382683 -0.653282
v 0.693520 0.195090 -0.693520
v 0.707107 0.000000 -0.707107
v 0.693520 -0.195090 -0.693520
v 0.653282 -0.382683 -0.653282
v 0.587938 -0.555570 -0.587938
v 0.500000 -0.707107 -0.500000
v 0.392848 -0.831470 -0.392848
v 0.270598 -0.923880 -0.270598
v 0.137950 -0.980785 -0.137950
v 0.162212 0.980785 -0.108386
v 0.318190 0.923880 -0.212608
v 0.461940 0.831470 -0.308658
v 0.587938 0.707107 -0.392848
v 0.691342 0.555570 -0.461940
v 0.768178 0.382683 -0.513280
v 0.815493 0.195090 -0.544895
v 0.831470 0.000000 -0.555570
v 0.815493 -0.195090 -0.544895
v 0.768178 -0.382683 -0.513280
v 0.691342 -0.555570 -0.461940
v 0.587938 -0.707107 -0.392848
v 0.461940 -0.831470 -0.308658
v 0.318190 -0.923880 -0.212608
v 0.162212 -0.980785 -0.108386
v 0.180240 0.980785 -0.074658
v 0.353554 0.923880 -0.146447
v 0.513280 0.831470 -0.212608
v 0.653282 0.707107 -0.270598
v 0.768178 0.555570 -0.318190
v 0.853554 0.382683 -0.353553
v 0.906128 0.195090 -0.375330
v 0.923880 0.000000 -0.382683
v 0.906128 -0.195090 -0.375330
v 0.853554 -0.382683 -0.353553
v 0.768178 -0.555570 -0.318190
v 0.653282 -0.707107 -0.270598
v 0.513280 -0.831470 -0.212608
v 0.353554 -0.923880 -0.146447
v 0.180240 -0.980785 -0.074658
v 0.191342 0.980785 -0.038060
v 0.375331 0.923880 -0.074658
v 0.544896 0.831470 -0.108386
v 0.693520 0.707107 -0.137950
v 0.815493 0.555570 -0.162212
v 0.906128 0.382683 -0.180240
v 0.961940 0.195090 -0.191342
v 0.980786 0.000000 -0.195090
v 0.961940 -0.195090 -0.191342
v 0.906128 -0.382683 -0.180240
v 0.815493 -0.555570 -0.162212
v 0.693520 -0.707107 -0.137950
v 0.544895 -0.831470 -0.108386
v 0.375331 -0.923880 -0.074658
v 0.191342 -0.980785 -0.038060
v 0.195091 0.980785 0.000000
v 0.382684 0.923880 -0.000000
v 0.555571 0.831470 -0.000000
v 0.707107 0.707107 0.000000
v 0.831470 0.555570 0.000000
v 0.923880 0.382683 -0.000000
v 0.980785 0.195090 0.000000
v 1.000000 0.000000 0.000000
v 0.980785 -0.195090 0.000000
v 0.923880 -0.382683 -0.000000
v 0.831470 -0.555570 0.000000
v 0.707107 -0.707107 0.000000
v 0.555570 -0.831470 0.000000
v 0.382684 -0.923880 -0.000000
v 0.195091 -0.980785 -0.000000
v 0.191342 0.980785 0.038060
v 0.375331 0.923880 0.074658
v 0.544896 0.831470 0.108386
v 0.693520 0.707107 0.137950
v 0.815493 0.555570 0.162212
v 0.906128 0.382683 0.180240
v 0.961940 0.195090 0.191342
v 0.980786 0.000000 0.195090
v 0.961940 -0.195090 0.191342
v 0.906128 -0.382683 0.180240
v 0.815493 -0.555570 0.162212
v 0.693520 -0.707107 0.137950
v 0.544895 -0.831470 0.108386
v 0.375331 -0.923880 0.074658
v 0.191342 -0.980785 0.038060
v 0.180240 0.980785 0.074658
v 0.353554 0.923880 0.146447
v 0.513280 0.831470 0.212608
v 0.653282 0.707107 0.270598
v 0.768178 0.555570 0.318190
v 0.853554 0.382683 0.353553
v 0.906127 0.195090 0.375330
v 0.923880 0.000000 0.382684
v 0.906127 -0.195090 0.375330
v 0.853554 -0.382683 0.353553
v 0.768178 -0.555570 0.318190
v 0.653282 -0.707107 0.270598
v 0.513280 -0.831470 0.212608
v 0.353554 -0.923880 0.146447
v 0.180240 -0.980785 0.074658
v 0.162212 0.980785 0.108386
v 0.318190 0.923880 0.212608
v 0.461940 0.831470 0.308658
v 0.587938 0.707107 0.392847
v 0.691342 0.555570 0.461940
v 0.768178 0.382683 0.513280
v 0.815493 0.195090 0.544895
v 0.831470 0.000000 0.555570
v 0.815493 -0.195090 0.544895
v 0.768178 -0.382683 0.513280
v 0.691342 -0.555570 0.461940
v 0.587938 -0.707107 0.392847
v 0.461940 -0.831470 0.308658
v 0.318190 -0.923880 0.212607
v 0.162212 -0.980785 0.108386
v 0.137950 0.980785 0.137950
v 0.270598 0.923880 0.270598
v 0.392848 0.831470 0.392848
v 0.500000 0.707107 0.500000
v 0.587938 0.555570 0.587938
v 0.653282 0.382683 0.653281
v 0.693520 0.195090 0.693520
v 0.707107 0.000000 0.707107
v 0.693520 -0.195090 0.693520
v 0.653282 -0.382683 0.653281
v 0.587938 -0.555570 0.587938
v 0.500000 -0.707107 0.500000
v 0.392848 -0.831470 0.392847
v 0.270598 -0.923880 0.270598
v 0.137950 -0.980785 0.137950
v 0.108387 0.980785 0.162212
v 0.212608 0.923880 0.318190
v 0.308659 0.831470 0.461940
v 0.392848 0.707107 0.587938
v 0.461940 0.555570 0.691342
v 0.513280 0.382683 0.768178
v 0.544895 0.195090 0.815493
v 0.555570 0.000000 0.831470
v 0.544895 -0.195090 0.815493
v 0.513280 -0.382683 0.768178
v 0.461940 -0.555570 0.691342
v 0.392848 -0.707107 0.587938
v 0.308658 -0.831470 0.461940
v 0.212608 -0.923880 0.318190
v 0.108387 -0.980785 0.162212
v 0.074658 0.980785 0.180240
v 0.146447 0.923880 0.353553
v 0.212608 0.831470 0.513280
v 0.270598 0.707107 0.653281
v 0.318190 0.555570 0.768177
v 0.353554 0.382683 0.853553
v 0.375330 0.195090 0.906127
v 0.382684 0.000000 0.923880
v 0.375330 -0.195090 0.906127
v 0.353554 -0.382683 0.853553
v 0.318190 -0.555570 0.768177
v 0.270598 -0.707107 0.653281
v 0.212608 -0.831470 0.513280
v 0.146447 -0.923880 0.353553
v 0.074658 -0.980785 0.180240
v 0.038061 0.980785 0.191342
v 0.074658 0.923880 0.375330
v 0.108387 0.831470 0.544895
v 0.137950 0.707107 0.693520
v 0.162212 0.555570 0.815493
v 0.180240 0.382683 0.906127
v 0.191342 0.195090 0.961939
v 0.195090 0.000000 0.980785
v 0.191342 -0.195090 0.961939
v 0.180240 -0.382683 0.906127
v 0.162212 -0.555570 0.815493
v 0.137950 -0.707107 0.693520
v 0.108387 -0.831470 0.544895
v 0.074658 -0.923880 0.375330
v 0.038061 -0.980785 0.191342
v 0.000000 0.980785 0.195090
v 0.000000 0.923880 0.382683
v 0.000000 0.831470 0.555570
v 0.000000 0.707107 0.707107
v 0.000000 0.555570 0.831469
v 0.000000 0.382683 0.923879
v 0.000000 0.195090 0.980785
v 0.000000 0.000000 1.000000
v 0.000000 -0.195090 0.980785
v 0.000000 -0.382683 0.923879
v 0.000000 -0.555570 0.831469
v 0.000000 -0.707107 0.707107
v 0.000000 -0.831470 0.555570
v 0.000000 -0.923880 0.382683
v 0.000000 -0.980785 0.195090
v -0.038060 0.980785 0.191342
v -0.074658 0.923880 0.375330
v -0.108386 0.831470 0.544895
v -0.137949 0.707107 0.693520
v -0.162211 0.555570 0.815493
v -0.180240 0.382683 0.906127
v -0.191342 0.195090 0.961939
v -0.195090 0.000000 0.980785
v -0.191342 -0.195090 0.961939
v -0.180240 -0.382683 0.906127
v -0.162211 -0.555570 0.815493
v -0.137949 -0.707107 0.693520
v -0.108386 -0.831470 0.544895
v -0.074658 -0.923880 0.375330
v -0.038060 -0.980785 0.191342
v 0.000000 1.000000 0.000000
v -0.074658 0.980785 0.180240
v -0.146446 0.923880 0.353553
v -0.212607 0.831470 0.513280
v -0.270598 0.707107 0.653281
v -0.318189 0.555570 0.768177
v -0.353553 0.382683 0.853553
v -0.375330 0.195090 0.906127
v -0.382683 0.000000 0.923879
v -0.375330 -0.195090 0.906127
v -0.353553 -0.382683 0.853553
v -0.318189 -0.555570 0.768177
v -0.270598 -0.707107 0.653281
v -0.212607 -0.831470 0.513280
v -0.146446 -0.923880 0.353553
v -0.074657 -0.980785 0.180240
v -0.108386 0.980785 0.162212
v -0.212607 0.923880 0.318190
v -0.308658 0.831470 0.461940
v -0.392847 0.707107 0.587938
v -0.461939 0.555570 0.691341
v -0.513280 0.382683 0.768178
v -0.544895 0.195090 0.815493
v -0.555570 0.000000 0.831469
v -0.544895 -0.195090 0.815493
v -0.513280 -0.382683 0.768178
v -0.461939 -0.555570 0.691341
v -0.392847 -0.707107 0.587938
v -0.308658 -0.831470 0.461940
v -0.212607 -0.923880 0.318189
v -0.108386 -0.980785 0.162212
v -0.137949 0.980785 0.137950
v -0.270598 0.923880 0.270598
v -0.392847 0.831470 0.392847
v -0.500000 0.707107 0.500000
v -0.587937 0.555570 0.587937
v -0.653281 0.382683 0.653281
v -0.693519 0.195090 0.693519
v -0.707106 0.000000 0.707106
v -0.693519 -0.195090 0.693519
v -0.653281 -0.382683 0.653281
v -0.587937 -0.555570 0.587937
v -0.500000 -0.707107 0.500000
v -0.392847 -0.831470 0.392847
v -0.270598 -0.923880 0.270598
v -0.137949 -0.980785 0.137950
v -0.162211 0.980785 0.108386
v -0.318189 0.923880 0.212607
v -0.461939 0.831470 0.308658
v -0.587937 0.707107 0.392847
v -0.691341 0.555570 0.461939
v -0.768177 0.382683 0.513280
v -0.815492 0.195090 0.544895
v -0.831469 0.000000 0.555570
v -0.815492 -0.195090 0.544895
v -0.768177 -0.382683 0.513280
v -0.691341 -0.555570 0.461939
v -0.587937 -0.707107 0.392847
v -0.461939 -0.831470 0.308658
v -0.318189 -0.923880 0.212607
v -0.162211 -0.980785 0.108386
v -0.180240 0.980785 0.074658
v -0.353553 0.923880 0.146447
v -0.513280 0.831470 0.212607
v -0.653281 0.707107 0.270598
v -0.768177 0.555570 0.318189
v -0.853553 0.382683 0.353553
v -0.906127 0.195090 0.375330
v -0.923879 0.000000 0.382683
v -0.906127 -0.195090 0.375330
v -0.853553 -0.382683 0.353553
v -0.768177 -0.555570 0.318189
v -0.653281 -0.707107 0.270598
v -0.513279 -0.831470 0.212607
v -0.353553 -0.923880 0.146446
v -0.180240 -0.980785 0.074658
v -0.191342 0.980785 0.038060
v -0.375330 0.923880 0.074658
v -0.544895 0.831470 0.108386
v -0.693520 0.707107 0.137950
v -0.815492 0.555570 0.162211
v -0.906127 0.382683 0.180240
v -0.961939 0.195090 0.191341
v -0.980785 0.000000 0.195090
v -0.961939 -0.195090 0.191341
v -0.906127 -0.382683 0.180240
v -0.815492 -0.555570 0.162211
v -0.693520 -0.707107 0.137950
v -0.544895 -0.831470 0.108386
v -0.375330 -0.923880 0.074658
v -0.191341 -0.980785 0.038060
vn -0.924741 0.380535 0.000000
vn -0.833338 0.552751 0.000000
vn -0.906980 0.380535 -0.180395
vn -0.710135 0.704031 0.000000
vn -0.559771 0.828639 0.000000
vn -0.696493 0.704031 -0.138524
vn -0.200964 -0.979583 0.000000
vn -0.387860 -0.921690 0.000000
vn -0.197089 -0.979583 -0.039186
vn -0.387860 0.921690 0.000000
vn -0.200964 0.979583 0.000000
vn -0.380413 0.921690 -0.075655
vn -0.559771 -0.828639 0.000000
vn -0.710135 -0.704031 0.000000
vn -0.548997 -0.828639 -0.109195
vn -0.833338 -0.552751 0.000000
vn -0.924741 -0.380535 0.000000
vn -0.817316 -0.552751 -0.162572
vn -0.980987 -0.193915 0.000000
vn -1.000000 0.000000 0.000000
vn -0.962157 -0.193915 -0.191382
vn -0.980987 0.193915 0.000000
vn -0.962157 0.193915 -0.191382
vn -0.817316 0.552751 -0.162572
vn -0.548997 0.828639 -0.109195
vn -0.380413 -0.921690 -0.075655
vn -0.696493 -0.704031 -0.138524
vn -0.906980 -0.380535 -0.180395
vn -0.980773 0.000000 -0.195074
vn -0.656056 -0.704031 -0.271737
vn -0.854366 -0.380535 -0.353893
vn -0.923856 0.000000 -0.382672
vn -0.854366 0.380535 -0.353862
vn -0.656056 0.704031 -0.271737
vn -0.185644 -0.979583 -0.076907
vn -0.197089 0.979583 -0.039186
vn -0.358348 0.921690 -0.148412
vn -0.517136 -0.828639 -0.214209
vn -0.769890 -0.552751 -0.318888
vn -0.906339 -0.193915 -0.375408
vn -0.906339 0.193915 -0.375408
vn -0.769890 0.552751 -0.318888
vn -0.517136 0.828639 -0.214209
vn -0.358348 -0.921690 -0.148412
vn -0.590442 -0.704031 -0.394513
vn -0.768914 -0.380535 -0.513749
vn -0.831446 0.000000 -0.555559
vn -0.768914 0.380535 -0.513749
vn -0.590442 0.704031 -0.394513
vn -0.167089 -0.979583 -0.111637
vn -0.185644 0.979583 -0.076876
vn -0.322489 0.921690 -0.215491
vn -0.465407 -0.828639 -0.310984
vn -0.692892 -0.552751 -0.462966
vn -0.815668 -0.193915 -0.545000
vn -0.815668 0.193915 -0.545000
vn -0.692892 0.552751 -0.462966
vn -0.465407 0.828639 -0.310984
vn -0.322489 -0.921690 -0.215491
vn -0.502121 -0.704031 -0.502121
vn -0.653890 -0.380535 -0.653890
vn -0.707083 0.000000 -0.707083
vn -0.653890 0.380535 -0.653890
vn -0.502121 0.704031 -0.502121
vn -0.142094 -0.979583 -0.142094
vn -0.167089 0.979583 -0.111637
vn -0.274270 0.921690 -0.274270
vn -0.395795 -0.828639 -0.395795
vn -0.589251 -0.552751 -0.589251
vn -0.693655 -0.193915 -0.693655
vn -0.693655 0.193915 -0.693655
vn -0.589251 0.552751 -0.589251
vn -0.395795 0.828639 -0.395795
vn -0.274270 -0.921690 -0.274270
vn -0.394513 -0.704031 -0.590442
vn -0.545000 -0.193915 -0.815668
vn -0.555559 0.000000 -0.831446
vn -0.513749 0.380535 -0.768914
vn -0.394513 0.704031 -0.590442
vn -0.111637 -0.979583 -0.167089
vn -0.142094 0.979583 -0.142094
vn -0.215491 0.921690 -0.322489
vn -0.310984 -0.828639 -0.465407
vn -0.462966 -0.552751 -0.692892
vn -0.545000 0.193915 -0.815668
vn -0.462966 0.552751 -0.692892
vn -0.310984 0.828639 -0.465407
vn -0.215491 -0.921690 -0.322489
vn -0.271737 -0.704031 -0.656056
vn -0.513749 -0.380535 -0.768914
vn -0.375408 -0.193915 -0.906339
vn -0.382672 0.000000 -0.923856
vn -0.353862 0.380535 -0.854366
vn -0.271737 0.704031 -0.656056
vn -0.076907 -0.979583 -0.185644
vn -0.111637 0.979583 -0.167089
vn -0.148412 0.921690 -0.358348
vn -0.214209 -0.828639 -0.517136
vn -0.318888 -0.552751 -0.769890
vn -0.375408 0.193915 -0.906339
vn -0.318888 0.552751 -0.769890
vn -0.214209 0.828639 -0.517136
vn -0.148412 -0.921690 -0.358348
vn -0.138524 -0.704031 -0.696493
vn -0.353862 -0.380535 -0.854366
vn -0.191382 -0.193915 -0.962157
vn -0.195074 0.000000 -0.980773
vn -0.180395 0.380535 -0.906980
vn -0.138524 0.704031 -0.696493
vn -0.039186 -0.979583 -0.197089
vn -0.076907 0.979583 -0.185644
vn -0.075655 0.921690 -0.380413
vn -0.109195 -0.828639 -0.548997
vn -0.162572 -0.552751 -0.817316
vn -0.191382 0.193915 -0.962157
vn -0.162572 0.552751 -0.817316
vn -0.109195 0.828639 -0.548997
vn -0.075655 -0.921690 -0.380413
vn 0.000000 -0.704031 -0.710135
vn -0.180395 -0.380535 -0.906980
vn 0.000000 -0.193915 -0.980987
vn 0.000000 0.000000 -1.000000
vn 0.000000 0.380535 -0.924741
vn 0.000000 0.704031 -0.710135
vn 0.000000 -0.979583 -0.200964
vn -0.039186 0.979583 -0.197089
vn 0.000000 0.921690 -0.387860
vn 0.000000 -0.828639 -0.559771
vn 0.000000 -0.552751 -0.833338
vn 0.000000 0.193915 -0.980987
vn 0.000000 0.552751 -0.833338
vn 0.000000 0.828639 -0.559771
vn 0.000000 -0.921690 -0.387860
vn 0.138524 -0.704031 -0.696493
vn 0.000000 -0.380535 -0.924741
vn 0.191382 -0.193915 -0.962157
vn 0.195074 0.000000 -0.980773
vn 0.180395 0.380535 -0.906980
vn 0.138524 0.704031 -0.696493
vn 0.039186 -0.979583 -0.197089
vn 0.000000 0.979583 -0.200964
vn 0.075655 0.921690 -0.380413
vn 0.109195 -0.828639 -0.548997
vn 0.162572 -0.552751 -0.817316
vn 0.191382 0.193915 -0.962157
vn 0.162572 0.552751 -0.817316
vn 0.109195 0.828639 -0.548997
vn 0.075655 -0.921690 -0.380413
vn 0.271737 -0.704031 -0.656056
vn 0.180395 -0.380535 -0.906980
vn 0.375408 -0.193915 -0.906339
vn 0.382672 0.000000 -0.923856
vn 0.353893 0.380535 -0.854366
vn 0.271737 0.704031 -0.656056
vn 0.076907 -0.979583 -0.185644
vn 0.039186 0.979583 -0.197089
vn 0.148412 0.921690 -0.358348
vn 0.214209 -0.828639 -0.517136
vn 0.318888 -0.552751 -0.769890
vn 0.375408 0.193915 -0.906339
vn 0.318888 0.552751 -0.769890
vn 0.214209 0.828639 -0.517136
vn 0.148412 -0.921690 -0.358348
vn 0.394513 -0.704031 -0.590442
vn 0.353893 -0.380535 -0.854366
vn 0.545000 -0.193915 -0.815668
vn 0.555559 0.000000 -0.831446
vn 0.462966 0.552751 -0.692892
vn 0.394513 0.704031 -0.590442
vn 0.111637 -0.979583 -0.167089
vn 0.076907 0.979583 -0.185644
vn 0.215491 0.921690 -0.322489
vn 0.310984 -0.828639 -0.465407
vn 0.462966 -0.552751 -0.692892
vn 0.545000 0.193915 -0.815668
vn 0.310984 0.828639 -0.465407
vn 0.215491 -0.921690 -0.322489
vn 0.502121 -0.704031 -0.502121
vn 0.513749 -0.380535 -0.768914
vn 0.693655 -0.193915 -0.693655
vn 0.707083 0.000000 -0.707083
vn 0.513749 0.380535 -0.768914
vn 0.589251 0.552751 -0.589251
vn 0.502121 0.704031 -0.502121
vn 0.142094 -0.979583 -0.142094
vn 0.111637 0.979583 -0.167089
vn 0.274270 0.921690 -0.274270
vn 0.395795 -0.828639 -0.395795
vn 0.589251 -0.552751 -0.589251
vn 0.693655 0.193915 -0.693655
vn 0.395795 0.828639 -0.395795
vn 0.274270 -0.921690 -0.274270
vn 0.590442 -0.704031 -0.394513
vn 0.653890 -0.380535 -0.653890
vn 0.815668 -0.193915 -0.545000
vn 0.831446 0.000000 -0.555559
vn 0.653890 0.380535 -0.653890
vn 0.692892 0.552751 -0.462966
vn 0.590442 0.704031 -0.394513
vn 0.167089 -0.979583 -0.111637
vn 0.142094 0.979583 -0.142094
vn 0.322489 0.921690 -0.215491
vn 0.465407 -0.828639 -0.310984
vn 0.692892 -0.552751 -0.462966
vn 0.815668 0.193915 -0.545000
vn 0.465407 0.828639 -0.310984
vn 0.322489 -0.921690 -0.215491
vn 0.656056 -0.704031 -0.271737
vn 0.768914 -0.380535 -0.513749
vn 0.906339 -0.193915 -0.375408
vn 0.923856 0.000000 -0.382672
vn 0.768914 0.380535 -0.513749
vn 0.769890 0.552751 -0.318888
vn 0.656056 0.704031 -0.271737
vn 0.185644 -0.979583 -0.076907
vn 0.167089 0.979583 -0.111637
vn 0.358348 0.921690 -0.148412
vn 0.517136 -0.828639 -0.214209
vn 0.769890 -0.552751 -0.318888
vn 0.906339 0.193915 -0.375408
vn 0.517136 0.828639 -0.214209
vn 0.358348 -0.921690 -0.148412
vn 0.696493 -0.704031 -0.138524
vn 0.854366 -0.380535 -0.353862
vn 0.962157 -0.193915 -0.191382
vn 0.980773 0.000000 -0.195074
vn 0.854366 0.380535 -0.353862
vn 0.817316 0.552751 -0.162572
vn 0.696493 0.704031 -0.138524
vn 0.197089 -0.979583 -0.039186
vn 0.185644 0.979583 -0.076907
vn 0.380413 0.921690 -0.075655
vn 0.548997 -0.828639 -0.109195
vn 0.817316 -0.552751 -0.162572
vn 0.962157 0.193915 -0.191382
vn 0.548997 0.828639 -0.109195
vn 0.380413 -0.921690 -0.075655
vn 0.710135 -0.704031 0.000000
vn 0.906980 -0.380535 -0.180395
vn 0.980987 -0.193915 0.000000
vn 1.000000 0.000000 0.000000
vn 0.906980 0.380535 -0.180395
vn 0.833338 0.552751 0.000000
vn 0.710135 0.704031 0.000000
vn 0.200964 -0.979583 0.000000
vn 0.197089 0.979583 -0.039186
vn 0.387860 0.921690 0.000000
vn 0.559771 -0.828639 0.000000
vn 0.833338 -0.552751 0.000000
vn 0.980987 0.193915 0.000000
vn 0.559771 0.828639 0.000000
vn 0.387860 -0.921690 0.000000
vn 0.696493 -0.704031 0.138524
vn 0.924741 -0.380535 0.000000
vn 0.962157 -0.193915 0.191382
vn 0.980773 0.000000 0.195074
vn 0.924741 0.380535 0.000000
vn 0.817316 0.552751 0.162572
vn 0.696493 0.704031 0.138524
vn 0.197089 -0.979583 0.039186
vn 0.200964 0.979583 0.000000
vn 0.380413 0.921690 0.075655
vn 0.548997 -0.828639 0.109195
vn 0.817316 -0.552751 0.162572
vn 0.962157 0.193915 0.191382
vn 0.548997 0.828639 0.109195
vn 0.380413 -0.921690 0.075655
vn 0.656056 -0.704031 0.271737
vn 0.906980 -0.380535 0.180395
vn 0.906339 -0.193915 0.375408
vn 0.923856 0.000000 0.382672
vn 0.906980 0.380535 0.180395
vn 0.769890 0.552751 0.318888
vn 0.656056 0.704031 0.271737
vn 0.185644 -0.979583 0.076907
vn 0.197089 0.979583 0.039186
vn 0.358348 0.921690 0.148412
vn 0.517136 -0.828639 0.214209
vn 0.769890 -0.552751 0.318888
vn 0.906339 0.193915 0.375408
vn 0.517136 0.828639 0.214209
vn 0.358348 -0.921690 0.148412
vn 0.590442 -0.704031 0.394513
vn 0.854366 -0.380535 0.353862
vn 0.815668 -0.193915 0.545000
vn 0.831446 0.000000 0.555559
vn 0.854366 0.380535 0.353862
vn 0.692892 0.552751 0.462966
vn 0.590442 0.704031 0.394513
vn 0.167089 -0.979583 0.111637
vn 0.185644 0.979583 0.076907
vn 0.322489 0.921690 0.215491
vn 0.465407 -0.828639 0.310984
vn 0.692892 -0.552751 0.462966
vn 0.815668 0.193915 0.545000
vn 0.465407 0.828639 0.310984
vn 0.322489 -0.921690 0.215491
vn 0.502121 -0.704031 0.502121
vn 0.768914 -0.380535 0.513749
vn 0.693655 -0.193915 0.693655
vn 0.707083 0.000000 0.707083
vn 0.768914 0.380535 0.513749
vn 0.589251 0.552751 0.589251
vn 0.502121 0.704031 0.502121
vn 0.142094 -0.979583 0.142094
vn 0.167089 0.979583 0.111637
vn 0.274270 0.921690 0.274270
vn 0.395795 -0.828639 0.395795
vn 0.589251 -0.552751 0.589251
vn 0.693655 0.193915 0.693655
vn 0.395795 0.828639 0.395795
vn 0.274270 -0.921690 0.274270
vn 0.394513 -0.704031 0.590442
vn 0.653890 -0.380535 0.653890
vn 0.545000 -0.193915 0.815668
vn 0.555559 0.000000 0.831446
vn 0.653890 0.380535 0.653890
vn 0.462966 0.552751 0.692892
vn 0.394513 0.704031 0.590442
vn 0.111637 -0.979583 0.167089
vn 0.142094 0.979583 0.142094
vn 0.215491 0.921690 0.322489
vn 0.310984 -0.828639 0.465407
vn 0.462966 -0.552751 0.692892
vn 0.545000 0.193915 0.815668
vn 0.310984 0.828639 0.465407
vn 0.215491 -0.921690 0.322489
vn 0.271737 -0.704031 0.656056
vn 0.513749 -0.380535 0.768914
vn 0.375408 -0.193915 0.906339
vn 0.382672 0.000000 0.923856
vn 0.513749 0.380535 0.768914
vn 0.318888 0.552751 0.769890
vn 0.271737 0.704031 0.656056
vn 0.076907 -0.979583 0.185644
vn 0.111637 0.979583 0.167089
vn 0.148412 0.921690 0.358348
vn 0.214209 -0.828639 0.517136
vn 0.318888 -0.552751 0.769890
vn 0.375408 0.193915 0.906339
vn 0.214209 0.828639 0.517136
vn 0.148412 -0.921690 0.358348
vn 0.138524 -0.704031 0.696493
vn 0.353862 -0.380535 0.854366
vn 0.191382 -0.193915 0.962157
vn 0.195074 0.000000 0.980773
vn 0.353862 0.380535 0.854366
vn 0.162572 0.552751 0.817316
vn 0.138524 0.704031 0.696493
vn 0.039186 -0.979583 0.197089
vn 0.076907 0.979583 0.185644
vn 0.075655 0.921690 0.380413
vn 0.109195 -0.828639 0.548997
vn 0.162572 -0.552751 0.817316
vn 0.191382 0.193915 0.962157
vn 0.109195 0.828639 0.548997
vn 0.075655 -0.921690 0.380413
vn 0.000000 -0.704031 0.710135
vn 0.180395 -0.380535 0.906980
vn 0.000000 -0.193915 0.980987
vn 0.000000 0.000000 1.000000
vn 0.180395 0.380535 0.906980
vn 0.000000 0.552751 0.833338
vn 0.000000 0.704031 0.710135
vn 0.000000 -0.979583 0.200964
vn 0.039186 0.979583 0.197089
vn 0.000000 0.921690 0.387860
vn 0.000000 -0.828639 0.559771
vn 0.000000 -0.552751 0.833338
vn 0.000000 0.193915 0.980987
vn 0.000000 0.828639 0.559771
vn 0.000000 -0.921690 0.387860
vn -0.138524 -0.704031 0.696493
vn 0.000000 -0.380535 0.924741
vn -0.191382 -0.193915 0.962157
vn -0.195074 0.000000 0.980773
vn 0.000000 0.380535 0.924741
vn -0.162572 0.552751 0.817316
vn -0.138524 0.704031 0.696493
vn -0.039186 -0.979583 0.197089
vn 0.000000 0.979583 0.200964
vn -0.075655 0.921690 0.380413
vn -0.109195 -0.828639 0.548997
vn -0.162572 -0.552751 0.817316
vn -0.191382 0.193915 0.962157
vn -0.109195 0.828639 0.548997
vn -0.075655 -0.921690 0.380413
vn -0.271737 -0.704031 0.656056
vn -0.180395 -0.380535 0.906980
vn -0.375408 -0.193915 0.906339
vn -0.382672 0.000000 0.923856
vn -0.180395 0.380535 0.906980
vn -0.318888 0.552751 0.769890
vn -0.271737 0.704031 0.656056
vn -0.076907 -0.979583 0.185644
vn -0.039186 0.979583 0.197089
vn -0.148412 0.921690 0.358348
vn -0.214209 -0.828639 0.517136
vn -0.318888 -0.552751 0.769890
vn -0.375408 0.193915 0.906339
vn -0.214209 0.828639 0.517136
vn -0.148412 -0.921690 0.358348
vn -0.394513 -0.704031 0.590442
vn -0.353862 -0.380535 0.854366
vn -0.545000 -0.193915 0.815668
vn -0.555559 0.000000 0.831446
vn -0.353862 0.380535 0.854366
vn -0.462966 0.552751 0.692892
vn -0.394513 0.704031 0.590442
vn -0.111637 -0.979583 0.167089
vn -0.076907 0.979583 0.185644
vn -0.215491 0.921690 0.322489
vn -0.310984 -0.828639 0.465407
vn -0.462966 -0.552751 0.692892
vn -0.545000 0.193915 0.815668
vn -0.310984 0.828639 0.465407
vn -0.215491 -0.921690 0.322489
vn -0.502121 -0.704031 0.502121
vn -0.513749 -0.380535 0.768914
vn -0.693655 -0.193915 0.693655
vn -0.707083 0.000000 0.707083
vn -0.513749 0.380535 0.768914
vn -0.589251 0.552751 0.589251
vn -0.502121 0.704031 0.502121
vn -0.142094 -0.979583 0.142094
vn -0.111637 0.979583 0.167089
vn -0.274270 0.921690 0.274270
vn -0.395795 -0.828639 0.395795
vn -0.589251 -0.552751 0.589251
vn -0.693655 0.193915 0.693655
vn -0.395795 0.828639 0.395795
vn -0.274270 -0.921690 0.274270
vn -0.590442 -0.704031 0.394513
vn -0.653890 -0.380535 0.653890
vn -0.815668 -0.193915 0.545000
vn -0.831446 0.000000 0.555559
vn -0.653890 0.380535 0.653890
vn -0.692892 0.552751 0.462966
vn -0.590442 0.704031 0.394513
vn -0.167089 -0.979583 0.111637
vn -0.142094 0.979583 0.142094
vn -0.322489 0.921690 0.215491
vn -0.465407 -0.828639 0.310984
vn -0.692892 -0.552751 0.462966
vn -0.815668 0.193915 0.545000
vn -0.465407 0.828639 0.310984
vn -0.322489 -0.921690 0.215491
vn -0.656056 -0.704031 0.271737
vn -0.768914 -0.380535 0.513749
vn -0.906339 -0.193915 0.375408
vn -0.923856 0.000000 0.382672
vn -0.768914 0.380535 0.513749
vn -0.769890 0.552751 0.318888
vn -0.656056 0.704031 0.271737
vn -0.185644 -0.979583 0.076907
vn -0.167089 0.979583 0.111637
vn -0.358348 0.921690 0.148412
vn -0.517136 -0.828639 0.214209
vn -0.769890 -0.552751 0.318888
vn -0.906339 0.193915 0.375408
vn -0.517136 0.828639 0.214209
vn -0.358348 -0.921690 0.148412
vn -0.696493 -0.704031 0.138524
vn -0.854366 -0.380535 0.353862
vn -0.962157 -0.193915 0.191382
vn -0.980773 0.000000 0.195074
vn -0.854366 0.380535 0.353862
vn -0.817316 0.552751 0.162572
vn -0.696493 0.704031 0.138524
vn -0.197089 -0.979583 0.039186
vn -0.185644 0.979583 0.076876
vn -0.380413 0.921690 0.075655
vn -0.548997 -0.828639 0.109195
vn -0.817316 -0.552751 0.162572
vn -0.962157 0.193915 0.191382
vn -0.548997 0.828639 0.109195
vn -0.380413 -0.921690 0.075655
vn 0.000000 -1.000000 0.000000
vn 0.000000 0.999969 0.000000
vn -0.197089 0.979583 0.039186
vn -0.906980 -0.380535 0.180395
vn -0.906980 0.380535 0.180395
usemtl None
s 1
f 6//1 5//2 22//3
f 4//4 3//5 20//6
f 15//7 14//8 31//9
f 2//10 1//11 18//12
f 13//13 12//14 29//15
f 11//16 10//17 27//18
f 9//19 8//20 25//21
f 7//22 6//1 23//23
f 5//2 4//4 21//24
f 3//5 2//10 19//25
f 14//8 13//13 30//26
f 12//14 11//16 28//27
f 10//17 9//19 26//28
f 8//20 7//22 24//29
f 28//27 27//18 43//30
f 26//28 25//21 41//31
f 24//29 23//23 39//32
f 22//3 21//24 37//33
f 20//6 19//25 35//34
f 31//9 30//26 46//35
f 18//12 17//36 33//37
f 29//15 28//27 44//38
f 27//18 26//28 42//39
f 25//21 24//29 40//40
f 23//23 22//3 38//41
f 21//24 20//6 36//42
f 19//25 18//12 34//43
f 30//26 29//15 45//44
f 43//30 42//39 58//45
f 41//31 40//40 56//46
f 39//32 38//41 54//47
f 37//33 36//42 52//48
f 35//34 34//43 50//49
f 46//35 45//44 61//50
f 33//37 32//51 48//52
f 44//38 43//30 59//53
f 42//39 41//31 57//54
f 40//40 39//32 55//55
f 38//41 37//33 53//56
f 36//42 35//34 51//57
f 34//43 33//37 49//58
f 45//44 44//38 60//59
f 58//45 57//54 73//60
f 56//46 55//55 71//61
f 54//47 53//56 69//62
f 52//48 51//57 67//63
f 50//49 49//58 65//64
f 61//50 60//59 76//65
f 48//52 47//66 63//67
f 59//53 58//45 74//68
f 57//54 56//46 72//69
f 55//55 54//47 70//70
f 53//56 52//48 68//71
f 51//57 50//49 66//72
f 49//58 48//52 64//73
f 60//59 59//53 75//74
f 73//60 72//69 88//75
f 71//61 70//70 85//76
f 69//62 68//71 84//77
f 67//63 66//72 82//78
f 65//64 64//73 80//79
f 76//65 75//74 91//80
f 63//67 62//81 78//82
f 74//68 73//60 89//83
f 72//69 71//61 87//84
f 70//70 69//62 85//76
f 68//71 67//63 83//85
f 66//72 65//64 81//86
f 64//73 63//67 79//87
f 75//74 74//68 90//88
f 88//75 87//84 103//89
f 86//90 85//76 100//91
f 84//77 83//85 99//92
f 82//78 81//86 97//93
f 80//79 79//87 95//94
f 91//80 90//88 106//95
f 78//82 77//96 93//97
f 89//83 88//75 104//98
f 87//84 86//90 102//99
f 85//76 84//77 100//91
f 83//85 82//78 98//100
f 81//86 80//79 96//101
f 79//87 78//82 94//102
f 90//88 89//83 105//103
f 103//89 102//99 118//104
f 101//105 100//91 115//106
f 99//92 98//100 114//107
f 97//93 96//101 112//108
f 95//94 94//102 110//109
f 106//95 105//103 121//110
f 93//97 92//111 108//112
f 104//98 103//89 119//113
f 102//99 101//105 117//114
f 100//91 99//92 115//106
f 98//100 97//93 113//115
f 96//101 95//94 111//116
f 94//102 93//97 109//117
f 105//103 104//98 120//118
f 118//104 117//114 133//119
f 116//120 115//106 130//121
f 114//107 113//115 129//122
f 112//108 111//116 127//123
f 110//109 109//117 125//124
f 121//110 120//118 136//125
f 108//112 107//126 123//127
f 119//113 118//104 134//128
f 117//114 116//120 132//129
f 115//106 114//107 130//121
f 113//115 112//108 128//130
f 111//116 110//109 126//131
f 109//117 108//112 124//132
f 120//118 119//113 135//133
f 133//119 132//129 148//134
f 131//135 130//121 145//136
f 129//122 128//130 144//137
f 127//123 126//131 142//138
f 125//124 124//132 140//139
f 136//125 135//133 151//140
f 123//127 122//141 138//142
f 134//128 133//119 149//143
f 132//129 131//135 147//144
f 130//121 129//122 145//136
f 128//130 127//123 143//145
f 126//131 125//124 141//146
f 124//132 123//127 139//147
f 135//133 134//128 150//148
f 148//134 147//144 163//149
f 146//150 145//136 160//151
f 144//137 143//145 159//152
f 142//138 141//146 157//153
f 140//139 139//147 155//154
f 151//140 150//148 166//155
f 138//142 137//156 153//157
f 149//143 148//134 164//158
f 147//144 146//150 162//159
f 145//136 144//137 160//151
f 143//145 142//138 158//160
f 141//146 140//139 156//161
f 139//147 138//142 154//162
f 150//148 149//143 165//163
f 163//149 162//159 178//164
f 161//165 160//151 175//166
f 159//152 158//160 174//167
f 157//153 156//161 171//168
f 155//154 154//162 170//169
f 166//155 165//163 181//170
f 153//157 152//171 168//172
f 164//158 163//149 179//173
f 162//159 161//165 177//174
f 160//151 159//152 175//166
f 158//160 157//153 173//175
f 156//161 155//154 171//168
f 154//162 153//157 169//176
f 165//163 164//158 180//177
f 178//164 177//174 193//178
f 176//179 175//166 190//180
f 174//167 173//175 189//181
f 172//182 171//168 186//183
f 170//169 169//176 185//184
f 181//170 180//177 196//185
f 168//172 167//186 183//187
f 179//173 178//164 194//188
f 177//174 176//179 192//189
f 175//166 174//167 190//180
f 173//175 172//182 188//190
f 171//168 170//169 186//183
f 169//176 168//172 184//191
f 180//177 179//173 195//192
f 193//178 192//189 208//193
f 191//194 190//180 205//195
f 189//181 188//190 204//196
f 187//197 186//183 201//198
f 185//184 184//191 200//199
f 196//185 195//192 211//200
f 183//187 182//201 198//202
f 194//188 193//178 209//203
f 192//189 191//194 207//204
f 190//180 189//181 205//195
f 188//190 187//197 203//205
f 186//183 185//184 201//198
f 184//191 183//187 199//206
f 195//192 194//188 210//207
f 208//193 207//204 223//208
f 206//209 205//195 220//210
f 204//196 203//205 219//211
f 202//212 201//198 216//213
f 200//199 199//206 215//214
f 211//200 210//207 226//215
f 198//202 197//216 213//217
f 209//203 208//193 224//218
f 207//204 206//209 222//219
f 205//195 204//196 220//210
f 203//205 202//212 218//220
f 201//198 200//199 216//213
f 199//206 198//202 214//221
f 210//207 209//203 225//222
f 223//208 222//219 238//223
f 221//224 220//210 235//225
f 219//211 218//220 234//226
f 217//227 216//213 231//228
f 215//214 214//221 230//229
f 226//215 225//222 241//230
f 213//217 212//231 228//232
f 224//218 223//208 239//233
f 222//219 221//224 237//234
f 220//210 219//211 235//225
f 218//220 217//227 233//235
f 216//213 215//214 231//228
f 214//221 213//217 229//236
f 225//222 224//218 240//237
f 238//223 237//234 253//238
f 236//239 235//225 250//240
f 234//226 233//235 249//241
f 232//242 231//228 246//243
f 230//229 229//236 245//244
f 241//230 240//237 256//245
f 228//232 227//246 243//247
f 239//233 238//223 254//248
f 237//234 236//239 252//249
f 235//225 234//226 250//240
f 233//235 232//242 248//250
f 231//228 230//229 246//243
f 229//236 228//232 244//251
f 240//237 239//233 255//252
f 253//238 252//249 268//253
f 251//254 250//240 265//255
f 249//241 248//250 264//256
f 247//257 246//243 261//258
f 245//244 244//251 260//259
f 256//245 255//252 271//260
f 243//247 242//261 258//262
f 254//248 253//238 269//263
f 252//249 251//254 267//264
f 250//240 249//241 265//255
f 248//250 247//257 263//265
f 246//243 245//244 261//258
f 244//251 243//247 259//266
f 255//252 254//248 270//267
f 268//253 267//264 283//268
f 266//269 265//255 280//270
f 264//256 263//265 279//271
f 262//272 261//258 276//273
f 260//259 259//266 275//274
f 271//260 270//267 286//275
f 258//262 257//276 273//277
f 269//263 268//253 284//278
f 267//264 266//269 282//279
f 265//255 264//256 280//270
f 263//265 262//272 278//280
f 261//258 260//259 276//273
f 259//266 258//262 274//281
f 270//267 269//263 285//282
f 283//268 282//279 298//283
f 281//284 280//270 295//285
f 279//271 278//280 294//286
f 277//287 276//273 291//288
f 275//274 274//281 290//289
f 286//275 285//282 301//290
f 273//277 272//291 288//292
f 284//278 283//268 299//293
f 282//279 281//284 297//294
f 280//270 279//271 295//285
f 278//280 277//287 293//295
f 276//273 275//274 291//288
f 274//281 273//277 289//296
f 285//282 284//278 300//297
f 298//283 297//294 313//298
f 296//299 295//285 310//300
f 294//286 293//295 309//301
f 292//302 291//288 306//303
f 290//289 289//296 305//304
f 301//290 300//297 316//305
f 288//292 287//306 303//307
f 299//293 298//283 314//308
f 297//294 296//299 312//309
f 295//285 294//286 310//300
f 293//295 292//302 308//310
f 291//288 290//289 306//303
f 289//296 288//292 304//311
f 300//297 299//293 315//312
f 313//298 312//309 328//313
f 311//314 310//300 325//315
f 309//301 308//310 324//316
f 307//317 306//303 321//318
f 305//304 304//311 320//319
f 316//305 315//312 331//320
f 303//307 302//321 318//322
f 314//308 313//298 329//323
f 312//309 311//314 327//324
f 310//300 309//301 325//315
f 308//310 307//317 323//325
f 306//303 305//304 321//318
f 304//311 303//307 319//326
f 315//312 314//308 330//327
f 328//313 327//324 343//328
f 326//329 325//315 340//330
f 324//316 323//325 339//331
f 322//332 321//318 336//333
f 320//319 319//326 335//334
f 331//320 330//327 346//335
f 318//322 317//336 333//337
f 329//323 328//313 344//338
f 327//324 326//329 342//339
f 325//315 324//316 340//330
f 323//325 322//332 338//340
f 321//318 320//319 336//333
f 319//326 318//322 334//341
f 330//327 329//323 345//342
f 343//328 342//339 358//343
f 341//344 340//330 355//345
f 339//331 338//340 354//346
f 337//347 336//333 351//348
f 335//334 334//341 350//349
f 346//335 345//342 361//350
f 333//337 332//351 348//352
f 344//338 343//328 359//353
f 342//339 341//344 357//354
f 340//330 339//331 355//345
f 338//340 337//347 353//355
f 336//333 335//334 351//348
f 334//341 333//337 349//356
f 345//342 344//338 360//357
f 358//343 357//354 373//358
f 356//359 355//345 370//360
f 354//346 353//355 369//361
f 352//362 351//348 366//363
f 350//349 349//356 365//364
f 361//350 360//357 376//365
f 348//352 347//366 363//367
f 359//353 358//343 374//368
f 357//354 356//359 372//369
f 355//345 354//346 370//360
f 353//355 352//362 368//370
f 351//348 350//349 366//363
f 349//356 348//352 364//371
f 360//357 359//353 375//372
f 373//358 372//369 388//373
f 371//374 370//360 385//375
f 369//361 368//370 384//376
f 367//377 366//363 381//378
f 365//364 364//371 380//379
f 376//365 375//372 391//380
f 363//367 362//381 378//382
f 374//368 373//358 389//383
f 372//369 371//374 387//384
f 370//360 369//361 385//375
f 368//370 367//377 383//385
f 366//363 365//364 381//378
f 364//371 363//367 379//386
f 375//372 374//368 390//387
f 388//373 387//384 404//388
f 386//389 385//375 401//390
f 384//376 383//385 400//391
f 382//392 381//378 397//393
f 380//379 379//386 396//394
f 391//380 390//387 407//395
f 378//382 377//396 394//397
f 389//383 388//373 405//398
f 387//384 386//389 403//399
f 385//375 384//376 401//390
f 383//385 382//392 399//400
f 381//378 380//379 397//393
f 379//386 378//382 395//401
f 390//387 389//383 406//402
f 404//388 403//399 419//403
f 402//404 401//390 416//405
f 400//391 399//400 415//406
f 398//407 397//393 412//408
f 396//394 395//401 411//409
f 407//395 406//402 422//410
f 394//397 393//411 409//412
f 405//398 404//388 420//413
f 403//399 402//404 418//414
f 401//390 400//391 416//405
f 399//400 398//407 414//415
f 397//393 396//394 412//408
f 395//401 394//397 410//416
f 406//402 405//398 421//417
f 419//403 418//414 434//418
f 417//419 416//405 431//420
f 415//406 414//415 430//421
f 413//422 412//408 427//423
f 411//409 410//416 426//424
f 422//410 421//417 437//425
f 409//412 408//426 424//427
f 420//413 419//403 435//428
f 418//414 417//419 433//429
f 416//405 415//406 431//420
f 414//415 413//422 429//430
f 412//408 411//409 427//423
f 410//416 409//412 425//431
f 421//417 420//413 436//432
f 434//418 433//429 449//433
f 432//434 431//420 446//435
f 430//421 429//430 445//436
f 428//437 427//423 442//438
f 426//424 425//431 441//439
f 437//425 436//432 452//440
f 424//427 423//441 439//442
f 435//428 434//418 450//443
f 433//429 432//434 448//444
f 431//420 430//421 446//435
f 429//430 428//437 444//445
f 427//423 426//424 442//438
f 425//431 424//427 440//446
f 436//432 435//428 451//447
f 449//433 448//444 464//448
f 447//449 446//435 461//450
f 445//436 444//445 460//451
f 443//452 442//438 457//453
f 441//439 440//446 456//454
f 452//440 451//447 467//455
f 439//442 438//456 454//457
f 450//443 449//433 465//458
f 448//444 447//449 463//459
f 446//435 445//436 461//450
f 444//445 443//452 459//460
f 442//438 441//439 457//453
f 440//446 439//442 455//461
f 451//447 450//443 466//462
f 464//448 463//459 479//463
f 462//464 461//450 476//465
f 460//451 459//460 475//466
f 458//467 457//453 472//468
f 456//454 455//461 471//469
f 467//455 466//462 482//470
f 454//457 453//471 469//472
f 465//458 464//448 480//473
f 463//459 462//464 478//474
f 461//450 460//451 476//465
f 459//460 458//467 474//475
f 457//453 456//454 472//468
f 455//461 454//457 470//476
f 466//462 465//458 481//477
f 16//478 15//7 31//9
f 1//11 392//479 17//36
f 17//36 392//479 32//51
f 16//478 31//9 46//35
f 32//51 392//479 47//66
f 16//478 46//35 61//50
f 47//66 392//479 62//81
f 16//478 61//50 76//65
f 62//81 392//479 77//96
f 16//478 76//65 91//80
f 77//96 392//479 92//111
f 16//478 91//80 106//95
f 92//111 392//479 107//126
f 16//478 106//95 121//110
f 107//126 392//479 122//141
f 16//478 121//110 136//125
f 122//141 392//479 137//156
f 16//478 136//125 151//140
f 137//156 392//479 152//171
f 16//478 151//140 166//155
f 152//171 392//479 167//186
f 16//478 166//155 181//170
f 167//186 392//479 182//201
f 16//478 181//170 196//185
f 182//201 392//479 197//216
f 16//478 196//185 211//200
f 197//216 392//479 212//231
f 16//478 211//200 226//215
f 212//231 392//479 227//246
f 16//478 226//215 241//230
f 227//246 392//479 242//261
f 16//478 241//230 256//245
f 242//261 392//479 257//276
f 16//478 256//245 271//260
f 257//276 392//479 272//291
f 16//478 271//260 286//275
f 272//291 392//479 287//306
f 16//478 286//275 301//290
f 287//306 392//479 302//321
f 16//478 301//290 316//305
f 302//321 392//479 317//336
f 16//478 316//305 331//320
f 317//336 392//479 332//351
f 16//478 331//320 346//335
f 332//351 392//479 347//366
f 16//478 346//335 361//350
f 347//366 392//479 362//381
f 16//478 361//350 376//365
f 362//381 392//479 377//396
f 16//478 376//365 391//380
f 377//396 392//479 393//411
f 16//478 391//380 407//395
f 393//411 392//479 408//426
f 16//478 407//395 422//410
f 408//426 392//479 423//441
f 16//478 422//410 437//425
f 423//441 392//479 438//456
f 16//478 437//425 452//440
f 438//456 392//479 453//471
f 16//478 452//440 467//455
f 453//471 392//479 468//480
f 16//478 467//455 482//470
f 468//480 392//479 1//11
f 479//463 478//474 11//16
f 477//481 476//465 9//19
f 475//466 474//475 8//20
f 473//482 472//468 6//1
f 471//469 470//476 4//4
f 482//470 481//477 14//8
f 469//472 468//480 2//10
f 480//473 479//463 12//14
f 478//474 477//481 10//17
f 476//465 475//466 9//19
f 474//475 473//482 7//22
f 472//468 471//469 5//2
f 16//478 482//470 15//7
f 470//476 469//472 3//5
f 481//477 480//473 13//13
f 5//2 21//24 22//3
f 3//5 19//25 20//6
f 14//8 30//26 31//9
f 1//11 17//36 18//12
f 12//14 28//27 29//15
f 10//17 26//28 27//18
f 8//20 24//29 25//21
f 6//1 22//3 23//23
f 4//4 20//6 21//24
f 2//10 18//12 19//25
f 13//13 29//15 30//26
f 11//16 27//18 28//27
f 9//19 25//21 26//28
f 7//22 23//23 24//29
f 27//18 42//39 43//30
f 25//21 40//40 41//31
f 23//23 38//41 39//32
f 21//24 36//42 37//33
f 19//25 34//43 35//34
f 30//26 45//44 46//35
f 17//36 32//51 33//37
f 28//27 43//30 44//38
f 26//28 41//31 42//39
f 24//29 39//32 40//40
f 22//3 37//33 38//41
f 20//6 35//34 36//42
f 18//12 33//37 34//43
f 29//15 44//38 45//44
f 42//39 57//54 58//45
f 40//40 55//55 56//46
f 38//41 53//56 54//47
f 36//42 51//57 52//48
f 34//43 49//58 50//49
f 45//44 60//59 61//50
f 32//51 47//66 48//52
f 43//30 58//45 59//53
f 41//31 56//46 57//54
f 39//32 54//47 55//55
f 37//33 52//48 53//56
f 35//34 50//49 51//57
f 33//37 48//52 49//58
f 44//38 59//53 60//59
f 57//54 72//69 73//60
f 55//55 70//70 71//61
f 53//56 68//71 69//62
f 51//57 66//72 67//63
f 49//58 64//73 65//64
f 60//59 75//74 76//65
f 47//66 62//81 63//67
f 58//45 73//60 74//68
f 56//46 71//61 72//69
f 54//47 69//62 70//70
f 52//48 67//63 68//71
f 50//49 65//64 66//72
f 48//52 63//67 64//73
f 59//53 74//68 75//74
f 72//69 87//84 88//75
f 86//90 71//61 85//76
f 68//71 83//85 84//77
f 66//72 81//86 82//78
f 64//73 79//87 80//79
f 75//74 90//88 91//80
f 62//81 77//96 78//82
f 73//60 88//75 89//83
f 71//61 86//90 87//84
f 69//62 84//77 85//76
f 67//63 82//78 83//85
f 65//64 80//79 81//86
f 63//67 78//82 79//87
f 74//68 89//83 90//88
f 87//84 102//99 103//89
f 101//105 86//90 100//91
f 83//85 98//100 99//92
f 81//86 96//101 97//93
f 79//87 94//102 95//94
f 90//88 105//103 106//95
f 77//96 92//111 93//97
f 88//75 103//89 104//98
f 86//90 101//105 102//99
f 84//77 99//92 100//91
f 82//78 97//93 98//100
f 80//79 95//94 96//101
f 78//82 93//97 94//102
f 89//83 104//98 105//103
f 102//99 117//114 118//104
f 116//120 101//105 115//106
f 98//100 113//115 114//107
f 96//101 111//116 112//108
f 94//102 109//117 110//109
f 105//103 120//118 121//110
f 92//111 107//126 108//112
f 103//89 118//104 119//113
f 101//105 116//120 117//114
f 99//92 114//107 115//106
f 97//93 112//108 113//115
f 95//94 110//109 111//116
f 93//97 108//112 109//117
f 104//98 119//113 120//118
f 117//114 132//129 133//119
f 131//135 116//120 130//121
f 113//115 128//130 129//122
f 111//116 126//131 127//123
f 109//117 124//132 125//124
f 120//118 135//133 136//125
f 107//126 122//141 123//127
f 118//104 133//119 134//128
f 116//120 131//135 132//129
f 114//107 129//122 130//121
f 112//108 127//123 128//130
f 110//109 125//124 126//131
f 108//112 123//127 124//132
f 119//113 134//128 135//133
f 132//129 147//144 148//134
f 146//150 131//135 145//136
f 128//130 143//145 144//137
f 126//131 141//146 142//138
f 124//132 139//147 140//139
f 135//133 150//148 151//140
f 122//141 137//156 138//142
f 133//119 148//134 149//143
f 131//135 146//150 147//144
f 129//122 144//137 145//136
f 127//123 142//138 143//145
f 125//124 140//139 141//146
f 123//127 138//142 139//147
f 134//128 149//143 150//148
f 147//144 162//159 163//149
f 161//165 146//150 160//151
f 143//145 158//160 159//152
f 141//146 156//161 157//153
f 139//147 154//162 155//154
f 150//148 165//163 166//155
f 137//156 152//171 153//157
f 148//134 163//149 164//158
f 146//150 161//165 162//159
f 144//137 159//152 160//151
f 142//138 157//153 158//160
f 140//139 155//154 156//161
f 138//142 153//157 154//162
f 149//143 164//158 165//163
f 162//159 177//174 178//164
f 176//179 161//165 175//166
f 158//160 173//175 174//167
f 172//182 157//153 171//168
f 154//162 169//176 170//169
f 165//163 180//177 181//170
f 152//171 167//186 168//172
f 163//149 178//164 179//173
f 161//165 176//179 177//174
f 159//152 174//167 175//166
f 157//153 172//182 173//175
f 155//154 170//169 171//168
f 153//157 168//172 169//176
f 164//158 179//173 180//177
f 177//174 192//189 193//178
f 191//194 176//179 190//180
f 173//175 188//190 189//181
f 187//197 172//182 186//183
f 169//176 184//191 185//184
f 180//177 195//192 196//185
f 167//186 182//201 183//187
f 178//164 193//178 194//188
f 176//179 191//194 192//189
f 174//167 189//181 190//180
f 172//182 187//197 188//190
f 170//169 185//184 186//183
f 168//172 183//187 184//191
f 179//173 194//188 195//192
f 192//189 207//204 208//193
f 206//209 191//194 205//195
f 188//190 203//205 204//196
f 202//212 187//197 201//198
f 184//191 199//206 200//199
f 195//192 210//207 211//200
f 182//201 197//216 198//202
f 193//178 208//193 209//203
f 191//194 206//209 207//204
f 189//181 204//196 205//195
f 187//197 202//212 203//205
f 185//184 200//199 201//198
f 183//187 198//202 199//206
f 194//188 209//203 210//207
f 207//204 222//219 223//208
f 221//224 206//209 220//210
f 203//205 218//220 219//211
f 217//227 202//212 216//213
f 199//206 214//221 215//214
f 210//207 225//222 226//215
f 197//216 212//231 213//217
f 208//193 223//208 224//218
f 206//209 221//224 222//219
f 204//196 219//211 220//210
f 202//212 217//227 218//220
f 200//199 215//214 216//213
f 198//202 213//217 214//221
f 209//203 224//218 225//222
f 222//219 237//234 238//223
f 236//239 221//224 235//225
f 218//220 233//235 234//226
f 232//242 217//227 231//228
f 214//221 229//236 230//229
f 225//222 240//237 241//230
f 212//231 227//246 228//232
f 223//208 238//223 239//233
f 221//224 236//239 237//234
f 219//211 234//226 235//225
f 217//227 232//242 233//235
f 215//214 230//229 231//228
f 213//217 228//232 229//236
f 224//218 239//233 240//237
f 237//234 252//249 253//238
f 251//254 236//239 250//240
f 233//235 248//250 249//241
f 247//257 232//242 246//243
f 229//236 244//251 245//244
f 240//237 255//252 256//245
f 227//246 242//261 243//247
f 238//223 253//238 254//248
f 236//239 251//254 252//249
f 234//226 249//241 250//240
f 232//242 247//257 248//250
f 230//229 245//244 246//243
f 228//232 243//247 244//251
f 239//233 254//248 255//252
f 252//249 267//264 268//253
f 266//269 251//254 265//255
f 248//250 263//265 264//256
f 262//272 247//257 261//258
f 244//251 259//266 260//259
f 255//252 270//267 271//260
f 242//261 257//276 258//262
f 253//238 268//253 269//263
f 251//254 266//269 267//264
f 249//241 264//256 265//255
f 247//257 262//272 263//265
f 245//244 260//259 261//258
f 243//247 258//262 259//266
f 254//248 269//263 270//267
f 267//264 282//279 283//268
f 281//284 266//269 280//270
f 263//265 278//280 279//271
f 277//287 262//272 276//273
f 259//266 274//281 275//274
f 270//267 285//282 286//275
f 257//276 272//291 273//277
f 268//253 283//268 284//278
f 266//269 281//284 282//279
f 264//256 279//271 280//270
f 262//272 277//287 278//280
f 260//259 275//274 276//273
f 258//262 273//277 274//281
f 269//263 284//278 285//282
f 282//279 297//294 298//283
f 296//299 281//284 295//285
f 278//280 293//295 294//286
f 292//302 277//287 291//288
f 274//281 289//296 290//289
f 285//282 300//297 301//290
f 272//291 287//306 288//292
f 283//268 298//283 299//293
f 281//284 296//299 297//294
f 279//271 294//286 295//285
f 277//287 292//302 293//295
f 275//274 290//289 291//288
f 273//277 288//292 289//296
f 284//278 299//293 300//297
f 297//294 312//309 313//298
f 311//314 296//299 310//300
f 293//295 308//310 309//301
f 307//317 292//302 306//303
f 289//296 304//311 305//304
f 300//297 315//312 316//305
f 287//306 302//321 303//307
f 298//283 313//298 314//308
f 296//299 311//314 312//309
f 294//286 309//301 310//300
f 292//302 307//317 308//310
f 290//289 305//304 306//303
f 288//292 303//307 304//311
f 299//293 314//308 315//312
f 312//309 327//324 328//313
f 326//329 311//314 325//315
f 308//310 323//325 324//316
f 322//332 307//317 321//318
f 304//311 319//326 320//319
f 315//312 330//327 331//320
f 302//321 317//336 318//322
f 313//298 328//313 329//323
f 311//314 326//329 327//324
f 309//301 324//316 325//315
f 307//317 322//332 323//325
f 305//304 320//319 321//318
f 303//307 318//322 319//326
f 314//308 329//323 330//327
f 327//324 342//339 343//328
f 341//344 326//329 340//330
f 323//325 338//340 339//331
f 337//347 322//332 336//333
f 319//326 334//341 335//334
f 330//327 345//342 346//335
f 317//336 332//351 333//337
f 328//313 343//328 344//338
f 326//329 341//344 342//339
f 324//316 339//331 340//330
f 322//332 337//347 338//340
f 320//319 335//334 336//333
f 318//322 333//337 334//341
f 329//323 344//338 345//342
f 342//339 357//354 358//343
f 356//359 341//344 355//345
f 338//340 353//355 354//346
f 352//362 337//347 351//348
f 334//341 349//356 350//349
f 345//342 360//357 361//350
f 332//351 347//366 348//352
f 343//328 358//343 359//353
f 341//344 356//359 357//354
f 339//331 354//346 355//345
f 337//347 352//362 353//355
f 335//334 350//349 351//348
f 333//337 348//352 349//356
f 344//338 359//353 360//357
f 357//354 372//369 373//358
f 371//374 356//359 370//360
f 353//355 368//370 369//361
f 367//377 352//362 366//363
f 349//356 364//371 365//364
f 360//357 375//372 376//365
f 347//366 362//381 363//367
f 358//343 373//358 374//368
f 356//359 371//374 372//369
f 354//346 369//361 370//360
f 352//362 367//377 368//370
f 350//349 365//364 366//363
f 348//352 363//367 364//371
f 359//353 374//368 375//372
f 372//369 387//384 388//373
f 386//389 371//374 385//375
f 368//370 383//385 384//376
f 382//392 367//377 381//378
f 364//371 379//386 380//379
f 375//372 390//387 391//380
f 362//381 377//396 378//382
f 373//358 388//373 389//383
f 371//374 386//389 387//384
f 369//361 384//376 385//375
f 367//377 382//392 383//385
f 365//364 380//379 381//378
f 363//367 378//382 379//386
f 374//368 389//383 390//387
f 387//384 403//399 404//388
f 402//404 386//389 401//390
f 383//385 399//400 400//391
f 398//407 382//392 397//393
f 379//386 395//401 396//394
f 390//387 406//402 407//395
f 377//396 393//411 394//397
f 388//373 404//388 405//398
f 386//389 402//404 403//399
f 384//376 400//391 401//390
f 382//392 398//407 399//400
f 380//379 396//394 397//393
f 378//382 394//397 395//401
f 389//383 405//398 406//402
f 403//399 418//414 419//403
f 417//419 402//404 416//405
f 399//400 414//415 415//406
f 413//422 398//407 412//408
f 395//401 410//416 411//409
f 406//402 421//417 422//410
f 393//411 408//426 409//412
f 404//388 419//403 420//413
f 402//404 417//419 418//414
f 400//391 415//406 416//405
f 398//407 413//422 414//415
f 396//394 411//409 412//408
f 394//397 409//412 410//416
f 405//398 420//413 421//417
f 418//414 433//429 434//418
f 432//434 417//419 431//420
f 414//415 429//430 430//421
f 428//437 413//422 427//423
f 410//416 425//431 426//424
f 421//417 436//432 437//425
f 408//426 423//441 424//427
f 419//403 434//418 435//428
f 417//419 432//434 433//429
f 415//406 430//421 431//420
f 413//422 428//437 429//430
f 411//409 426//424 427//423
f 409//412 424//427 425//431
f 420//413 435//428 436//432
f 433//429 448//444 449//433
f 447//449 432//434 446//435
f 429//430 444//445 445//436
f 443//452 428//437 442//438
f 425//431 440//446 441//439
f 436//432 451//447 452//440
f 423//441 438//456 439//442
f 434//418 449//433 450//443
f 432//434 447//449 448//444
f 430//421 445//436 446//435
f 428//437 443//452 444//445
f 426//424 441//439 442//438
f 424//427 439//442 440//446
f 435//428 450//443 451//447
f 448//444 463//459 464//448
f 462//464 447//449 461//450
f 444//445 459//460 460//451
f 458//467 443//452 457//453
f 440//446 455//461 456//454
f 451//447 466//462 467//455
f 438//456 453//471 454//457
f 449//433 464//448 465//458
f 447//449 462//464 463//459
f 445//436 460//451 461//450
f 443//452 458//467 459//460
f 441//439 456//454 457//453
f 439//442 454//457 455//461
f 450//443 465//458 466//462
f 463//459 478//474 479//463
f 477//481 462//464 476//465
f 459//460 474//475 475//466
f 473//482 458//467 472//468
f 455//461 470//476 471//469
f 466//462 481//477 482//470
f 453//471 468//480 469//472
f 464//448 479//463 480//473
f 462//464 477//481 478//474
f 460//451 475//466 476//465
f 458//467 473//482 474//475
f 456//454 471//469 472//468
f 454//457 469//472 470//476
f 465//458 480//473 481//477
f 12//14 479//463 11//16
f 10//17 477//481 9//19
f 474//475 7//22 8//20
f 472//468 5//2 6//1
f 470//476 3//5 4//4
f 15//7 482//470 14//8
f 468//480 1//11 2//10
f 13//13 480//473 12//14
f 11//16 478//474 10//17
f 475//466 8//20 9//19
f 473//482 6//1 7//22
f 471//469 4//4 5//2
f 469//472 2//10 3//5
f 14//8 481//477 13//13
